{
  "available-campaign-levels": {
    "demo": {
      "level-01": "hard"
    },
    "tight-spot": {
      "level-01": "hard"
    },
    "transport-belt-madness": {
      "level-01": "hard"
    }
  },
  "tutorials": {
    "construction-robots": "suggested",
    "stack-transfers": "suggested",
    "trains-advanced-signals": "suggested",
    "trains-basic-signals": "suggested",
    "trains-basics": "suggested",
    "trains-ghost-rail-planner": "suggested",
    "trains-stations": "suggested"
  },
  "console-history": [
    " /c game.player.insert{name=\"\", count=4000}    ",
    " /c game.player.insert{name=\"science pack\", count=4000}    ",
    " /c game.player.insert{name=\"Science pack 2\", count=4000}    ",
    " /c game.player.insert{name=\"Science-pack-2\", count=4000}    ",
    " /c game.player.insert{name=\"science pack 2\", count=4000}    ",
    " /c game.player.insert{name=\"science_pack_2\", count=4000}    ",
    " /c game.player.insert{name=\"sciencepack2\", count=4000}    ",
    " /c game.player.insert{name=\"sciencepack2\", count=40}    ",
    "/c game.player.insert{name=\"sciencepack2\", count=40}    ",
    "/c game.player.pring(game.speed)",
    "/c game.player.insert{name=\"science pack 2\", count=40}    ",
    "/c game.player.print(game.speed)",
    "/c game.player.insert{name=\"science pack 2\", count=20}    ",
    "/c game.player.insert{name=\"stone\", count=20}    ",
    "/c game.player.insert{name=\"Science pack 2\", count=20}    ",
    "/c game.player.insert{name=\"Science-pack-2\", count=20}    ",
    "/c game.player.insert{name=\"science pack 2 \", count=20}    ",
    "/c game.player.force.manual_crafting_speed_modifier=2  ",
    " /c game.player.insert{name=\"pipe\", count=2}    ",
    " /c game.player.insert{name=\"science pack 1\", count=2}    ",
    " /c game.player.insert{name=\"science_pack_1\", count=2}    ",
    " /c game.player.insert{name=\"sciencepack1\", count=2}    ",
    " /c game.player.insert{name=\"science-pack-1\", count=2}    ",
    " /c game.player.insert{name=\"science-pack-1\", count=200}    ",
    " /c game.player.insert{name=\"science-pack-1\", count=2002}    ",
    " /c game.player.insert{name=\"science-pack-3\", count=2002}    ",
    " /c game.player.insert{name=\"science-pack-2\", count=2002}    ",
    " /c game.player.insert{name=\"fast-inserter\", count=200}    ",
    " /c game.player.insert{name=\"electric-furnace\", count=200}    ",
    " /c game.player.insert{name=\"substation\", count=200}    ",
    " /c game.player.insert{name=\"express-transport-belt\", count=2100}    ",
    " /c game.player.insert{name=\"express-splitter\", count=2100}    ",
    " /c game.player.insert{name=\"stack-inserter\", count=2100}    ",
    " /c game.player.insert{name=\"steel-plate\", count=2100}    ",
    " /c game.player.insert{name=\"stack-inserter\", count=900}    ",
    " /c game.player.insert{name=\"speed-module\", count=900}    ",
    " /c game.player.insert{name=\"speed-module-4\", count=100}    ",
    " /c game.player.insert{name=\"speed-module-3\", count=4}    ",
    " /c game.player.insert{name=\"science-pack-1\", count=4}    ",
    " /c game.player.insert{name=\"science-pack-1\", count=4000}    ",
    " /c game.player.insert{name=\"science-pack-2\", count=4000}    ",
    " /c game.player.insert{name=\"science-pack-3\", count=4000}    ",
    " /c game.player.insert{name=\"production-science-pack\", count=4000}    ",
    " /c game.player.insert{name=\"high-tech-science-pack\", count=4000}    ",
    " /c game.player.insert{name=\"speed-module-3\", count=100}    ",
    " /c game.player.insert{name=\"productivity-module-3\", count=100}    ",
    "/c player.color=\"red\"",
    "/c player.color=red",
    "/c game.players[\"juhates\"].color = {r=0.7, g=0.5, b=0.1, a=1}",
    "/c game.players[\"juhates\"].color = {r=0.7, g=0.5, b=0.1, a=0}",
    "info",
    "/c game.players[\"juhates\"].color = {r=0.7, g=0.5, b=0.5, a=0}",
    "/c game.players[\"juhates\"].color = {r=0.7, g=0.2, b=0.5, a=0}",
    "/c game.players[\"juhates\"].color = {r=0.5, g=0.5, b=0.5, a=0}",
    "/c game.players[\"juhates\"].color = {r=0.5, g=0.5, b=0, a=0}",
    "/c game.players[\"juhates\"].color = {r=0.5, g=0.5, b=0.1, a=0}",
    "/c game.players[\"juhates\"].color = {r=0.5, g=1, b=0.1, a=0}",
    "/c game.players[\"juhates\"].color = {r=2, g=1, b=0.1, a=0}",
    "/c game.players[\"juhates\"].color = {r=1, g=1, b=0.1, a=0}",
    "/c game.players[\"juhates\"].color = {red}",
    "/color cyan",
    "/color rainbow",
    " /c game.player.insert{name=\"coal\", count=4000}    ",
    " /c game.speed=10",
    " /c game.player.insert{name=\"iron-plate\", count=400}    ",
    " /c game.player.insert{name=\"copper-plate\", count=400}    ",
    " /c game.player.insert{name=\"copper-plate\", count=900}    ",
    " /c game.player.insert{name=\"iron-plate\", count=900}    ",
    " /c game.player.insert{name=\"science-pack-1\", count=900}    ",
    " /c game.player.insert{name=\"science-pack-2\", count=900}    ",
    " /c game.speed=2",
    " /c game.player.insert{name=\"express-transport-belt\", count=900}    ",
    " /c game.player.insert{name=\"fast-inserter\", count=900}    ",
    " /c game.player.insert{name=\"express-underground-belt\", count=900}    ",
    "/c local player = game.player  player.insert{name=\"power-armor-mk2\", count = 1}  local p_armor = player.get_inventory(5)[1].grid   p_armor.put({name = \"fusion-reactor-equipment\"})   p_armor.put({name = \"fusion-reactor-equipment\"})   p_armor.put({name = \"fusion-reactor-equipment\"})   p_armor.put({name = \"exoskeleton-equipment\"})   p_armor.put({name = \"exoskeleton-equipment\"})   p_armor.put({name = \"exoskeleton-equipment\"})   p_armor.put({name = \"exoskeleton-equipment\"})   p_armor.put({name = \"energy-shield-mk2-equipment\"})   p_armor.put({name = \"energy-shield-mk2-equipment\"})   p_armor.put({name = \"personal-roboport-mk2-equipment\"})   p_armor.put({name = \"night-vision-equipment\"})   p_armor.put({name = \"battery-mk2-equipment\"})   p_armor.put({name = \"battery-mk2-equipment\"})",
    " /c game.player.insert{name=\"fast-splitter\", count=900}    ",
    " /c game.player.insert{name=\"logistic-robot\", count=30}    ",
    " /c game.player.insert{name=\"science-pack-1\", count=1000}    ",
    " /c game.player.insert{name=\"science-pack-2\", count=1000}    ",
    " /c game.speed=40",
    " /c game.speed=4",
    " /c game.player.insert{name=\"big-electric-pole\", count=30}    ",
    " /c game.player.insert{name=\"steel-furnace\", count=30}    ",
    " /c game.speed=1",
    "/color red",
    "/color steelblue",
    "/color hotpink",
    "/color orange",
    "/color silver",
    "/color white"
  ],
  "service-username": "juhates",
  "service-token": "fe1124c19abeb32802e2749e4ffc1a",
  "last-used-filters": {
    "password": "any",
    "mods": "any",
    "friends": "any"
  },
  "column-ordering": {
    "public-index": "name",
    "public-ascending": true,
    "lan-index": "name",
    "lan-ascending": true
  },
  "last-played-version": {
    "game_version": "0.16.30",
    "build_version": 36039,
    "build_mode": "steam",
    "platform": "win64"
  }
}
